Walkthrough: fitting a mixture model on copy-task data
…
Fitting the model

Preparing the data

First we load the keystroke data used in the manuscript. Data can be downloaded from OSF using the URL as below and the read_csv function. For brevity we use a subset of the sample. Data are from participants that each completed the consonants and LF-bigrams component of the copy task (Van Waes et al., 2019, 2020).

data <- read_csv("https://osf.io/e5gy6/download") %>%
  filter(ppts %in% 1:50, IKI > 10) # take first 50 ppts and only IKIs larger than 10 msecs

We reduced the data to four variables: a participant identifier ppts, a bigram identifier bigram, the inter-keystroke interval IKI, and the copy task component (levels: Consonants, LF).

data

# A tibble: 2,071 x 4
    ppts bigram   IKI component 
   <dbl> <chr>  <dbl> <chr>     
 1     1 tj       330 Consonants
 2     1 jx       278 Consonants
 3     1 xg       246 Consonants
 4     1 gf       297 Consonants
 5     1 fl       168 Consonants
 6     1 pg       270 Consonants
 7     1 gk       236 Consonants
 8     1 kf       440 Consonants
 9     1 fk      1784 Consonants
10     1 kq       663 Consonants
#  with 2,061 more rows
…
The values for \(\beta\) and \(\delta\) are shown on a log-scale. To transform their values back to msecs we can extract the posterior samples using the as.data.frame function. We prefer the use of tibble objects.

posterior <- as.data.frame(m, pars) %>% as_tibble() 
posterior

# A tibble: 45,000 x 6
   `beta[1]` `beta[2]` `delta[1]` `delta[2]` `theta[1]` `theta[2]`
       <dbl>     <dbl>      <dbl>      <dbl>      <dbl>      <dbl>
 1      5.81      5.63       1.09      0.240      0.523      0.377
 2      5.88      5.62       1.07      0.335      0.400      0.297
 3      5.83      5.58       1.10      0.283      0.440      0.375
 4      5.92      5.67       1.05      0.271      0.356      0.313
 5      5.90      5.65       1.06      0.269      0.390      0.359
 6      5.85      5.66       1.09      0.281      0.472      0.267
 7      5.87      5.55       1.15      0.278      0.420      0.304
 8      5.74      5.51       1.04      0.387      0.391      0.311
 9      5.75      5.54       1.12      0.353      0.417      0.287
10      5.63      5.52       1.06      0.265      0.415      0.280
#  with 44,990 more rows

The pivot_longer function is transforming the data above to a long format with an additional column for component and the model parameters kept as columns. The names_pattern argument is using a regular expression to extract the number in the squared brackets.

posterior_long <- pivot_longer(posterior, everything(), 
             names_to = c(".value", "component"), 
             names_pattern = "(.*)\\[(.)\\]") 

posterior_long

# A tibble: 90,000 x 4
   component  beta delta theta
   <chr>     <dbl> <dbl> <dbl>
 1 1          5.81 1.09  0.523
 2 2          5.63 0.240 0.377
 3 1          5.88 1.07  0.400
 4 2          5.62 0.335 0.297
 5 1          5.83 1.10  0.440
 6 2          5.58 0.283 0.375
 7 1          5.92 1.05  0.356
 8 2          5.67 0.271 0.313
 9 1          5.90 1.06  0.390
10 2          5.65 0.269 0.359
#  with 89,990 more rows

This code is then transforming beta and delta to msecs using the exponential function exp to un-log the values. In order to transform the slowdown delta into msecs we need to add beta before using the exponential function; we can then subtract beta again. The recode function changes the component indices from 1 to consonants and 2 to LF.

posterior_in_msecs <- mutate(posterior_long,
                             delta = exp(beta + delta) - exp(beta),
                             beta = exp(beta),
                             component = recode(component, `1` = "consonants",
                                                           `2` = "LF"))
posterior_in_msecs

# A tibble: 90,000 x 4
   component   beta delta theta
   <chr>      <dbl> <dbl> <dbl>
 1 consonants  334. 656.  0.523
 2 LF          279.  75.8 0.377
 3 consonants  357. 678.  0.400
 4 LF          275. 109.  0.297
 5 consonants  340. 687.  0.440
 6 LF          266.  87.1 0.375
 7 consonants  373. 692.  0.356
 8 LF          290.  90.0 0.313
 9 consonants  364. 688.  0.390
10 LF          283.  87.3 0.359
#  with 89,990 more rows
…
We can calculate the differences between the copy-task components for each parameter value. This is giving an indication of whether fluent typing (\(\beta\)) is influenced by the copy task, maybe the size of the disfluency slowdown (\(\delta\)) is impacted by the task, or the disfluency probability (\(\theta\)).

To determine these differences we change the data format above and create a variable that indicates the parameter and one column for the corresponding values for each copy-task component. The last line calculates the difference between the consonants task and the LF-bigrams task for each of the three parameter values.

posterior_by_component <- posterior_in_msecs %>%
  pivot_longer(beta:theta, names_to = "parameter") %>%
  group_by(component) %>%
  mutate(id = row_number()) %>%
  pivot_wider(names_from = component, values_from = value) %>%
  select(-id) %>% # drop id column
  mutate(diff = consonants - LF) # calculate the difference between copy-task components

posterior_by_component

# A tibble: 135,000 x 4
   parameter consonants      LF     diff
   <chr>          <dbl>   <dbl>    <dbl>
 1 beta         334.    279.     54.6   
 2 delta        656.     75.8   580.    
 3 theta          0.523   0.377   0.146 
 4 beta         357.    275.     81.9   
 5 delta        678.    109.    569.    
 6 theta          0.400   0.297   0.103 
 7 beta         340.    266.     74.2   
 8 delta        687.     87.1   600.    
 9 theta          0.440   0.375   0.0647
10 beta         373.    290.     83.4   
#  with 134,990 more rows
…
posterior_ppts_long <- posterior_ppts %>%
  # use exp() on everything starting with "beta"
  mutate(across(starts_with("beta"), exp)) %>%             
  pivot_longer(everything(), names_to = "parameter") %>%
  # replace "_s" with "," 
  mutate(parameter = gsub("_s", ",", parameter)) %>%
  # separate into parameter, component, ppt using "," as separator
  separate(parameter, into = c("parameter", "component", "participant")) %>% 
  mutate(component = recode(component, `1` = "consonants", `2` = "LF")) %>%
  group_by(parameter) %>% mutate(id = row_number()) %>%
  pivot_wider(names_from = parameter, values_from = value) %>% select(-id)

posterior_ppts_long

# A tibble: 4,500,000 x 4
   component  participant  beta theta
   <chr>      <chr>       <dbl> <dbl>
 1 consonants 1            323. 0.309
 2 LF         1            295. 0.292
 3 consonants 2            299. 0.514
 4 LF         2            305. 0.223
 5 consonants 3            381. 0.632
 6 LF         3            348. 0.332
 7 consonants 4            469. 0.509
 8 LF         4            301. 0.281
 9 consonants 5            357. 0.301
10 LF         5            254. 0.244
#  with 4,499,990 more rows

We can then summarise by-participant estimates for each component and parameter with the most probable parameter value and the 95% PI as before.

posterior_ppts_long_summary <- posterior_ppts_long %>%
  pivot_longer(beta:theta, names_to = "parameter", values_to = "value") %>%
  group_by(parameter, component, participant) %>%
  summarise(mean = mean(value),
            lower = quantile(value, .025),
            upper = quantile(value, .975))

posterior_ppts_long_summary

# A tibble: 200 x 6
# Groups:   parameter, component [4]
   parameter component  participant  mean lower upper
   <chr>     <chr>      <chr>       <dbl> <dbl> <dbl>
 1 beta      consonants 1            320.  246.  408.
 2 beta      consonants 10           268.  192.  348.
 3 beta      consonants 11           269.  197.  358.
 4 beta      consonants 12           290.  230.  362.
 5 beta      consonants 13           493.  300.  644.
 6 beta      consonants 14           427.  318.  562.
 7 beta      consonants 15           338.  268.  421.
 8 beta      consonants 16           295.  222.  380.
 9 beta      consonants 17           263.  204.  333.
10 beta      consonants 18           303.  223.  411.
#  with 190 more rows
…
